# MagicaVoxel @ Ephtracy

# group
o Shelf

# material
mtllib library-7-Shelf.mtl
usemtl palette

# normals
vn -1 0 0
vn 1 0 0
vn 0 0 1
vn 0 0 -1
vn 0 -1 0
vn 0 1 0

# texcoords
vt 0.0332031 0.5

# verts
v -6.1 0.1 -5.2
v -6.1 0.1 -6
v -6.1 4 -5.2
v -6.1 4 -6
v -1.3 0.3 -5.2
v -1.3 0.3 -5.8
v -1.3 1.1 -5.2
v -1.3 1.1 -5.8
v -1.3 1.2 -5.2
v -1.3 1.2 -5.8
v -1.3 2 -5.2
v -1.3 2 -5.8
v -1.3 2.1 -5.2
v -1.3 2.1 -5.8
v -1.3 2.9 -5.2
v -1.3 2.9 -5.8
v -1.3 3 -5.2
v -1.3 3 -5.8
v -1.3 3.8 -5.2
v -1.3 3.8 -5.8
v -1 0.1 -5.2
v -1 0.1 -6
v -1 4 -5.2
v -1 4 -6
v 5.9 0.3 -5.2
v 5.9 0.3 -5.8
v 5.9 1.1 -5.2
v 5.9 1.1 -5.8
v 5.9 1.2 -5.2
v 5.9 1.2 -5.8
v 5.9 2 -5.2
v 5.9 2 -5.8
v 5.9 2.1 -5.2
v 5.9 2.1 -5.8
v 5.9 2.9 -5.2
v 5.9 2.9 -5.8
v 5.9 3 -5.2
v 5.9 3 -5.8
v 5.9 3.8 -5.2
v 5.9 3.8 -5.8
v -5.9 0.3 -5.2
v -5.9 0.3 -5.8
v -5.9 1.1 -5.2
v -5.9 1.1 -5.8
v -5.9 1.2 -5.2
v -5.9 1.2 -5.8
v -5.9 2 -5.2
v -5.9 2 -5.8
v -5.9 2.1 -5.2
v -5.9 2.1 -5.8
v -5.9 2.9 -5.2
v -5.9 2.9 -5.8
v -5.9 3 -5.2
v -5.9 3 -5.8
v -5.9 3.8 -5.2
v -5.9 3.8 -5.8
v -1.1 0.1 -5.2
v -1.1 0.1 -6
v -1.1 4 -5.2
v -1.1 4 -6
v -0.8 0.3 -5.2
v -0.8 0.3 -5.8
v -0.8 1.1 -5.2
v -0.8 1.1 -5.8
v -0.8 1.2 -5.2
v -0.8 1.2 -5.8
v -0.8 2 -5.2
v -0.8 2 -5.8
v -0.8 2.1 -5.2
v -0.8 2.1 -5.8
v -0.8 2.9 -5.2
v -0.8 2.9 -5.8
v -0.8 3 -5.2
v -0.8 3 -5.8
v -0.8 3.8 -5.2
v -0.8 3.8 -5.8
v 6.1 0.1 -5.2
v 6.1 0.1 -6
v 6.1 4 -5.2
v 6.1 4 -6
v -6.1 0.1 -5.2
v -6.1 4 -5.2
v -5.9 0.3 -5.2
v -5.9 1.1 -5.2
v -5.9 1.2 -5.2
v -5.9 2 -5.2
v -5.9 2.1 -5.2
v -5.9 2.9 -5.2
v -5.9 3 -5.2
v -5.9 3.8 -5.2
v -1.3 0.3 -5.2
v -1.3 1.1 -5.2
v -1.3 1.2 -5.2
v -1.3 2 -5.2
v -1.3 2.1 -5.2
v -1.3 2.9 -5.2
v -1.3 3 -5.2
v -1.3 3.8 -5.2
v -1.1 0.1 -5.2
v -1.1 4 -5.2
v -1 0.1 -5.2
v -1 4 -5.2
v -0.8 0.3 -5.2
v -0.8 1.1 -5.2
v -0.8 1.2 -5.2
v -0.8 2 -5.2
v -0.8 2.1 -5.2
v -0.8 2.9 -5.2
v -0.8 3 -5.2
v -0.8 3.8 -5.2
v 5.9 0.3 -5.2
v 5.9 1.1 -5.2
v 5.9 1.2 -5.2
v 5.9 2 -5.2
v 5.9 2.1 -5.2
v 5.9 2.9 -5.2
v 5.9 3 -5.2
v 5.9 3.8 -5.2
v 6.1 0.1 -5.2
v 6.1 4 -5.2
v -5.9 0.3 -5.8
v -5.9 1.1 -5.8
v -5.9 1.2 -5.8
v -5.9 2 -5.8
v -5.9 2.1 -5.8
v -5.9 2.9 -5.8
v -5.9 3 -5.8
v -5.9 3.8 -5.8
v -1.3 0.3 -5.8
v -1.3 1.1 -5.8
v -1.3 1.2 -5.8
v -1.3 2 -5.8
v -1.3 2.1 -5.8
v -1.3 2.9 -5.8
v -1.3 3 -5.8
v -1.3 3.8 -5.8
v -0.8 0.3 -5.8
v -0.8 1.1 -5.8
v -0.8 1.2 -5.8
v -0.8 2 -5.8
v -0.8 2.1 -5.8
v -0.8 2.9 -5.8
v -0.8 3 -5.8
v -0.8 3.8 -5.8
v 5.9 0.3 -5.8
v 5.9 1.1 -5.8
v 5.9 1.2 -5.8
v 5.9 2 -5.8
v 5.9 2.1 -5.8
v 5.9 2.9 -5.8
v 5.9 3 -5.8
v 5.9 3.8 -5.8
v -6.1 0.1 -6
v -6.1 4 -6
v -1.1 0.1 -6
v -1.1 4 -6
v -1 0.1 -6
v -1 4 -6
v 6.1 0.1 -6
v 6.1 4 -6
v -6.1 0.1 -5.2
v -1.1 0.1 -5.2
v -1 0.1 -5.2
v 6.1 0.1 -5.2
v -6.1 0.1 -6
v -1.1 0.1 -6
v -1 0.1 -6
v 6.1 0.1 -6
v -5.9 1.1 -5.2
v -1.3 1.1 -5.2
v -0.8 1.1 -5.2
v 5.9 1.1 -5.2
v -5.9 1.1 -5.8
v -1.3 1.1 -5.8
v -0.8 1.1 -5.8
v 5.9 1.1 -5.8
v -5.9 2 -5.2
v -1.3 2 -5.2
v -0.8 2 -5.2
v 5.9 2 -5.2
v -5.9 2 -5.8
v -1.3 2 -5.8
v -0.8 2 -5.8
v 5.9 2 -5.8
v -5.9 2.9 -5.2
v -1.3 2.9 -5.2
v -0.8 2.9 -5.2
v 5.9 2.9 -5.2
v -5.9 2.9 -5.8
v -1.3 2.9 -5.8
v -0.8 2.9 -5.8
v 5.9 2.9 -5.8
v -5.9 3.8 -5.2
v -1.3 3.8 -5.2
v -0.8 3.8 -5.2
v 5.9 3.8 -5.2
v -5.9 3.8 -5.8
v -1.3 3.8 -5.8
v -0.8 3.8 -5.8
v 5.9 3.8 -5.8
v -5.9 0.3 -5.2
v -1.3 0.3 -5.2
v -0.8 0.3 -5.2
v 5.9 0.3 -5.2
v -5.9 0.3 -5.8
v -1.3 0.3 -5.8
v -0.8 0.3 -5.8
v 5.9 0.3 -5.8
v -5.9 1.2 -5.2
v -1.3 1.2 -5.2
v -0.8 1.2 -5.2
v 5.9 1.2 -5.2
v -5.9 1.2 -5.8
v -1.3 1.2 -5.8
v -0.8 1.2 -5.8
v 5.9 1.2 -5.8
v -5.9 2.1 -5.2
v -1.3 2.1 -5.2
v -0.8 2.1 -5.2
v 5.9 2.1 -5.2
v -5.9 2.1 -5.8
v -1.3 2.1 -5.8
v -0.8 2.1 -5.8
v 5.9 2.1 -5.8
v -5.9 3 -5.2
v -1.3 3 -5.2
v -0.8 3 -5.2
v 5.9 3 -5.2
v -5.9 3 -5.8
v -1.3 3 -5.8
v -0.8 3 -5.8
v 5.9 3 -5.8
v -6.1 4 -5.2
v -1.1 4 -5.2
v -1 4 -5.2
v 6.1 4 -5.2
v -6.1 4 -6
v -1.1 4 -6
v -1 4 -6
v 6.1 4 -6

# faces
f 3/1/1 2/1/1 1/1/1
f 4/1/1 2/1/1 3/1/1
f 7/1/1 6/1/1 5/1/1
f 8/1/1 6/1/1 7/1/1
f 11/1/1 10/1/1 9/1/1
f 12/1/1 10/1/1 11/1/1
f 15/1/1 14/1/1 13/1/1
f 16/1/1 14/1/1 15/1/1
f 19/1/1 18/1/1 17/1/1
f 20/1/1 18/1/1 19/1/1
f 23/1/1 22/1/1 21/1/1
f 24/1/1 22/1/1 23/1/1
f 27/1/1 26/1/1 25/1/1
f 28/1/1 26/1/1 27/1/1
f 31/1/1 30/1/1 29/1/1
f 32/1/1 30/1/1 31/1/1
f 35/1/1 34/1/1 33/1/1
f 36/1/1 34/1/1 35/1/1
f 39/1/1 38/1/1 37/1/1
f 40/1/1 38/1/1 39/1/1
f 41/1/2 42/1/2 43/1/2
f 43/1/2 42/1/2 44/1/2
f 45/1/2 46/1/2 47/1/2
f 47/1/2 46/1/2 48/1/2
f 49/1/2 50/1/2 51/1/2
f 51/1/2 50/1/2 52/1/2
f 53/1/2 54/1/2 55/1/2
f 55/1/2 54/1/2 56/1/2
f 57/1/2 58/1/2 59/1/2
f 59/1/2 58/1/2 60/1/2
f 61/1/2 62/1/2 63/1/2
f 63/1/2 62/1/2 64/1/2
f 65/1/2 66/1/2 67/1/2
f 67/1/2 66/1/2 68/1/2
f 69/1/2 70/1/2 71/1/2
f 71/1/2 70/1/2 72/1/2
f 73/1/2 74/1/2 75/1/2
f 75/1/2 74/1/2 76/1/2
f 77/1/2 78/1/2 79/1/2
f 79/1/2 78/1/2 80/1/2
f 83/1/3 82/1/3 81/1/3
f 84/1/3 82/1/3 83/1/3
f 85/1/3 82/1/3 84/1/3
f 86/1/3 82/1/3 85/1/3
f 87/1/3 82/1/3 86/1/3
f 88/1/3 82/1/3 87/1/3
f 89/1/3 82/1/3 88/1/3
f 90/1/3 82/1/3 89/1/3
f 91/1/3 83/1/3 81/1/3
f 92/1/3 85/1/3 84/1/3
f 93/1/3 85/1/3 92/1/3
f 94/1/3 87/1/3 86/1/3
f 95/1/3 87/1/3 94/1/3
f 96/1/3 89/1/3 88/1/3
f 97/1/3 89/1/3 96/1/3
f 98/1/3 82/1/3 90/1/3
f 99/1/3 97/1/3 96/1/3
f 99/1/3 98/1/3 97/1/3
f 99/1/3 95/1/3 94/1/3
f 99/1/3 91/1/3 81/1/3
f 99/1/3 96/1/3 95/1/3
f 99/1/3 93/1/3 92/1/3
f 99/1/3 94/1/3 93/1/3
f 99/1/3 92/1/3 91/1/3
f 100/1/3 82/1/3 98/1/3
f 100/1/3 98/1/3 99/1/3
f 103/1/3 102/1/3 101/1/3
f 104/1/3 102/1/3 103/1/3
f 105/1/3 102/1/3 104/1/3
f 106/1/3 102/1/3 105/1/3
f 107/1/3 102/1/3 106/1/3
f 108/1/3 102/1/3 107/1/3
f 109/1/3 102/1/3 108/1/3
f 110/1/3 102/1/3 109/1/3
f 111/1/3 103/1/3 101/1/3
f 112/1/3 105/1/3 104/1/3
f 113/1/3 105/1/3 112/1/3
f 114/1/3 107/1/3 106/1/3
f 115/1/3 107/1/3 114/1/3
f 116/1/3 109/1/3 108/1/3
f 117/1/3 109/1/3 116/1/3
f 118/1/3 102/1/3 110/1/3
f 119/1/3 117/1/3 116/1/3
f 119/1/3 118/1/3 117/1/3
f 119/1/3 115/1/3 114/1/3
f 119/1/3 111/1/3 101/1/3
f 119/1/3 116/1/3 115/1/3
f 119/1/3 113/1/3 112/1/3
f 119/1/3 114/1/3 113/1/3
f 119/1/3 112/1/3 111/1/3
f 120/1/3 102/1/3 118/1/3
f 120/1/3 118/1/3 119/1/3
f 129/1/3 122/1/3 121/1/3
f 130/1/3 122/1/3 129/1/3
f 131/1/3 124/1/3 123/1/3
f 132/1/3 124/1/3 131/1/3
f 133/1/3 126/1/3 125/1/3
f 134/1/3 126/1/3 133/1/3
f 135/1/3 128/1/3 127/1/3
f 136/1/3 128/1/3 135/1/3
f 145/1/3 138/1/3 137/1/3
f 146/1/3 138/1/3 145/1/3
f 147/1/3 140/1/3 139/1/3
f 148/1/3 140/1/3 147/1/3
f 149/1/3 142/1/3 141/1/3
f 150/1/3 142/1/3 149/1/3
f 151/1/3 144/1/3 143/1/3
f 152/1/3 144/1/3 151/1/3
f 153/1/4 154/1/4 155/1/4
f 155/1/4 154/1/4 156/1/4
f 157/1/4 158/1/4 159/1/4
f 159/1/4 158/1/4 160/1/4
f 165/1/5 162/1/5 161/1/5
f 166/1/5 162/1/5 165/1/5
f 167/1/5 164/1/5 163/1/5
f 168/1/5 164/1/5 167/1/5
f 173/1/5 170/1/5 169/1/5
f 174/1/5 170/1/5 173/1/5
f 175/1/5 172/1/5 171/1/5
f 176/1/5 172/1/5 175/1/5
f 181/1/5 178/1/5 177/1/5
f 182/1/5 178/1/5 181/1/5
f 183/1/5 180/1/5 179/1/5
f 184/1/5 180/1/5 183/1/5
f 189/1/5 186/1/5 185/1/5
f 190/1/5 186/1/5 189/1/5
f 191/1/5 188/1/5 187/1/5
f 192/1/5 188/1/5 191/1/5
f 197/1/5 194/1/5 193/1/5
f 198/1/5 194/1/5 197/1/5
f 199/1/5 196/1/5 195/1/5
f 200/1/5 196/1/5 199/1/5
f 201/1/6 202/1/6 205/1/6
f 205/1/6 202/1/6 206/1/6
f 203/1/6 204/1/6 207/1/6
f 207/1/6 204/1/6 208/1/6
f 209/1/6 210/1/6 213/1/6
f 213/1/6 210/1/6 214/1/6
f 211/1/6 212/1/6 215/1/6
f 215/1/6 212/1/6 216/1/6
f 217/1/6 218/1/6 221/1/6
f 221/1/6 218/1/6 222/1/6
f 219/1/6 220/1/6 223/1/6
f 223/1/6 220/1/6 224/1/6
f 225/1/6 226/1/6 229/1/6
f 229/1/6 226/1/6 230/1/6
f 227/1/6 228/1/6 231/1/6
f 231/1/6 228/1/6 232/1/6
f 233/1/6 234/1/6 237/1/6
f 237/1/6 234/1/6 238/1/6
f 235/1/6 236/1/6 239/1/6
f 239/1/6 236/1/6 240/1/6
