%YAML 1.1
%TAG !u! tag:unity3d.com,2011:
--- !u!1001 &3428100327207125448
PrefabInstance:
  m_ObjectHideFlags: 0
  serializedVersion: 2
  m_Modification:
    m_TransformParent: {fileID: 0}
    m_Modifications:
    - target: {fileID: 6312767879407905442, guid: d04bda3e2eb34f64db63ea9e99896d02,
        type: 3}
      propertyPath: m_Name
      value: Prop_Plaque_ReadPlayLove Variant
      objectReference: {fileID: 0}
    - target: {fileID: 6312767879407905452, guid: d04bda3e2eb34f64db63ea9e99896d02,
        type: 3}
      propertyPath: plaqueClip
      value: 
      objectReference: {fileID: 8300000, guid: 99169674f0f9b6041bfe65d74e031c57, type: 3}
    - target: {fileID: 7043679469009918129, guid: d04bda3e2eb34f64db63ea9e99896d02,
        type: 3}
      propertyPath: m_LocalPosition.x
      value: 0.284
      objectReference: {fileID: 0}
    - target: {fileID: 7043679469009918129, guid: d04bda3e2eb34f64db63ea9e99896d02,
        type: 3}
      propertyPath: m_LocalPosition.y
      value: 1.44
      objectReference: {fileID: 0}
    - target: {fileID: 7043679469009918129, guid: d04bda3e2eb34f64db63ea9e99896d02,
        type: 3}
      propertyPath: m_LocalPosition.z
      value: 2.76
      objectReference: {fileID: 0}
    - target: {fileID: 7043679469009918129, guid: d04bda3e2eb34f64db63ea9e99896d02,
        type: 3}
      propertyPath: m_LocalRotation.x
      value: 0
      objectReference: {fileID: 0}
    - target: {fileID: 7043679469009918129, guid: d04bda3e2eb34f64db63ea9e99896d02,
        type: 3}
      propertyPath: m_LocalRotation.y
      value: 0.7071068
      objectReference: {fileID: 0}
    - target: {fileID: 7043679469009918129, guid: d04bda3e2eb34f64db63ea9e99896d02,
        type: 3}
      propertyPath: m_LocalRotation.z
      value: 0
      objectReference: {fileID: 0}
    - target: {fileID: 7043679469009918129, guid: d04bda3e2eb34f64db63ea9e99896d02,
        type: 3}
      propertyPath: m_LocalRotation.w
      value: 0.7071068
      objectReference: {fileID: 0}
    - target: {fileID: 7043679469009918129, guid: d04bda3e2eb34f64db63ea9e99896d02,
        type: 3}
      propertyPath: m_RootOrder
      value: 0
      objectReference: {fileID: 0}
    - target: {fileID: 7043679469009918129, guid: d04bda3e2eb34f64db63ea9e99896d02,
        type: 3}
      propertyPath: m_LocalEulerAnglesHint.x
      value: 0
      objectReference: {fileID: 0}
    - target: {fileID: 7043679469009918129, guid: d04bda3e2eb34f64db63ea9e99896d02,
        type: 3}
      propertyPath: m_LocalEulerAnglesHint.y
      value: 90
      objectReference: {fileID: 0}
    - target: {fileID: 7043679469009918129, guid: d04bda3e2eb34f64db63ea9e99896d02,
        type: 3}
      propertyPath: m_LocalEulerAnglesHint.z
      value: 0
      objectReference: {fileID: 0}
    m_RemovedComponents: []
  m_SourcePrefab: {fileID: 100100000, guid: d04bda3e2eb34f64db63ea9e99896d02, type: 3}
